mywork/up_counter.vcd
$comment Generated by Amaranth $end
$date 2024-12-03 18:20:26.692463 $end
$timescale 1 fs $end
$scope module bench $end
$scope module top $end
$var wire 1 ! clk $end
$var wire 1 " rst $end
$var wire 1 # ovf $end
$var wire 16 $ count $end
$var wire 1 % en $end
$upscope $end
$upscope $end
$enddefinitions $end
#0
$dumpvars
0!
0"
0#
b0 $
0%
$end
#500000000
1!
#1000000000
0!
#1500000000
1!
#2000000000
0!
#2500000000
1!
#3000000000
0!
#3500000000
1!
#4000000000
0!
#4500000000
1!
#5000000000
0!
#5500000000
1!
#6000000000
0!
#6500000000
1!
#7000000000
0!
#7500000000
1!
#8000000000
0!
#8500000000
1!
#9000000000
0!
#9500000000
1!
#10000000000
0!
#10500000000
1!
#11000000000
0!
#11500000000
1!
#12000000000
0!
#12500000000
1!
#13000000000
0!
#13500000000
1!
#14000000000
0!
#14500000000
1!
#15000000000
0!
#15500000000
1!
#16000000000
0!
#16500000000
1!
#17000000000
0!
#17500000000
1!
#18000000000
0!
#18500000000
1!
#19000000000
0!
#19500000000
1!
#20000000000
0!
#20500000000
1!
#21000000000
0!
#21500000000
1!
#22000000000
0!
#22500000000
1!
#23000000000
0!
#23500000000
1!
#24000000000
0!
#24500000000
1!
#25000000000
0!
#25500000000
1!
#26000000000
0!
#26500000000
1!
#27000000000
0!
#27500000000
1!
#28000000000
0!
#28500000000
1!
#29000000000
0!
#29500000000
1!
#30000000000
0!
#30500000000
1!
1%
#31000000000
0!
#31500000000
1!
b1 $
#32000000000
0!
#32500000000
1!
b10 $
#33000000000
0!
#33500000000
1!
b11 $
#34000000000
0!
#34500000000
1!
b100 $
#35000000000
0!
#35500000000
1!
b101 $
#36000000000
0!
#36500000000
1!
b110 $
#37000000000
0!
#37500000000
1!
b111 $
#38000000000
0!
#38500000000
1!
b1000 $
#39000000000
0!
#39500000000
1!
b1001 $
#40000000000
0!
#40500000000
1!
b1010 $
#41000000000
0!
#41500000000
1!
b1011 $
#42000000000
0!
#42500000000
1!
b1100 $
#43000000000
0!
#43500000000
1!
b1101 $
#44000000000
0!
#44500000000
1!
b1110 $
#45000000000
0!
#45500000000
1!
b1111 $
#46000000000
0!
#46500000000
1!
b10000 $
#47000000000
0!
#47500000000
1!
b10001 $
#48000000000
0!
#48500000000
1!
b10010 $
#49000000000
0!
#49500000000
1!
b10011 $
#50000000000
0!
#50500000000
1!
b10100 $
#51000000000
0!
#51500000000
1!
b10101 $
#52000000000
0!
#52500000000
1!
b10110 $
#53000000000
0!
#53500000000
1!
b10111 $
#54000000000
0!
#54500000000
1!
b11000 $
#55000000000
0!
#55500000000
1!
b11001 $
1#
#56000000000
0!
#56500000000
1!
b0 $
0#
#57000000000
0!
#57500000000
1!
b1 $
